<?xml version="1.0" encoding="utf-8"?>
<!-- Generator: Adobe Illustrator 22.1.0, SVG Export Plug-In . SVG Version: 6.00 Build 0)  -->
<svg version="1.1" id="Ebene_1" xmlns="http://www.w3.org/2000/svg" xmlns:xlink="http://www.w3.org/1999/xlink" x="0px" y="0px"
	 viewBox="0 0 500 500" style="enable-background:new 0 0 500 500;" xml:space="preserve">
<style type="text/css">
	.st0{fill:#888989;}
	.st1{fill:#8BB554;}
	.st2{fill:#7B9B48;}
</style>
<ellipse class="st0" cx="329.2" cy="228.1" rx="54.6" ry="51.6"/>
<path class="st0" d="M429.9,454.4c-0.5-91.9-45.2-166.1-100.4-166.1s-99.9,74.2-100.4,166.1H429.9z"/>
<g>
	<ellipse class="st1" cx="171.1" cy="228.1" rx="54.6" ry="51.6"/>
</g>
<g>
	<path class="st1" d="M271.6,454.4c-0.5-91.9-45.2-166.1-100.4-166.1S71.3,362.6,70.8,454.4H271.6z"/>
</g>
<g>
	<path class="st2" d="M250.3,352.8c-13.1,28.1-21,63.3-21.2,101.5h42.5C271.4,416,263.4,380.8,250.3,352.8z"/>
</g>
<path class="st0" d="M250.3,48.2L28.6,187.3h42.5v164.5c4.9-10.4,10.6-19.8,16.8-28V170.5h-1L250.3,68l163.4,102.5h-1v153.6
	c6.2,8.2,11.9,17.6,16.8,27.9V187.3H472L250.3,48.2z"/>
</svg>
