<?xml version="1.0" encoding="utf-8"?>
<!-- Generator: Adobe Illustrator 19.1.0, SVG Export Plug-In . SVG Version: 6.00 Build 0)  -->
<svg version="1.1" id="Ebene_1" xmlns="http://www.w3.org/2000/svg" xmlns:xlink="http://www.w3.org/1999/xlink" x="0px" y="0px"
	 viewBox="-276 152.8 288.3 290.5" style="enable-background:new -276 152.8 288.3 290.5;" xml:space="preserve">
<style type="text/css">
	.st0{fill:none;stroke:#888989;stroke-width:20;stroke-linecap:round;stroke-miterlimit:10;}
</style>
<g>
	<line class="st0" x1="-74.6" y1="186.4" x2="-189.1" y2="296.7"/>
	<line class="st0" x1="-74.6" y1="409.7" x2="-189.1" y2="296.7"/>
</g>
</svg>
