<?xml version="1.0" encoding="utf-8"?>
<!-- Generator: Adobe Illustrator 19.1.0, SVG Export Plug-In . SVG Version: 6.00 Build 0)  -->
<svg version="1.1" id="Ebene_1" xmlns="http://www.w3.org/2000/svg" xmlns:xlink="http://www.w3.org/1999/xlink" x="0px" y="0px"
	 viewBox="-67.9 146.5 288.3 290.5" style="enable-background:new -67.9 146.5 288.3 290.5;" xml:space="preserve">
<style type="text/css">
	.st0{fill:none;stroke:#2C2C2C;stroke-width:20;stroke-linecap:round;stroke-miterlimit:10;}
	.st1{fill:none;stroke:#2C2C2C;stroke-width:20;stroke-miterlimit:10;}
</style>
<g>
	<circle class="st0" cx="76" cy="245.8" r="18.9"/>
	<path class="st0" d="M62.7,221.4c0,0-20.9-47,13.2-53.2c38-7,35.7,32.1,29.2,45.4c-4.9,10-10.2,14.8-10.2,14.8"/>
	<path class="st0" d="M95,228.4c0,0,38.6-37.9,56.2-8c18.3,31.1-15.3,41.8-30,40c-11.1-1.4-17.3-3.4-17.3-3.4"/>
	<path class="st0" d="M103.9,257.1c0,0,43.6,15.5,24.9,44.6c-19.6,30.3-44.3,5-49.2-8.9c-3.7-10.6-3.6-15.9-3.6-15.9"/>
	<path class="st0" d="M74.3,274c0,0-4.1,50.3-37,39.3c-34.3-11.3-16-41.6-3.8-49.8c9.3-6.2,17-8,17-8"/>
	<path class="st0" d="M45.9,250.6c0,0-50.1,6.4-47.3-28.2c2.9-36,36.6-25.3,47.6-15.4c8.2,7.6,13,17.2,13,17.2"/>
	<line class="st0" x1="78" y1="314.2" x2="78.3" y2="416.2"/>
	<path class="st1" d="M78,408c0,2.1,2.1,3.7,4.2,3c13-4.2,52.6-18,60.7-35.1c6.2-13.2,16.5-32.8,23.1-45.1c1.6-2.9-1.9-6-4.5-4.1
		l-41.2,31.8l-40.8,25.1c-0.9,0.6-1.3,1.6-1.3,2.6V408L78,408z"/>
	<path class="st1" d="M74.2,408.1c0,2.1-2.1,3.7-4.2,3c-12.9-4.3-52.5-18.2-60.5-35.4C3.3,362.6-6.8,343-13.3,330.6
		c-1.5-2.9,1.9-6,4.5-4.1l44.2,34.6L73,383.7c0.9,0.6,1.3,1.6,1.3,2.6L74.2,408.1z"/>
</g>
</svg>
