<?xml version="1.0" encoding="utf-8"?>
<!-- Generator: Adobe Illustrator 19.1.0, SVG Export Plug-In . SVG Version: 6.00 Build 0)  -->
<svg version="1.1" id="Ebene_1" xmlns="http://www.w3.org/2000/svg" xmlns:xlink="http://www.w3.org/1999/xlink" x="0px" y="0px"
	 viewBox="-169 48 501.1 500.3" style="enable-background:new -169 48 501.1 500.3;" xml:space="preserve">
<style type="text/css">
	.st0{fill:none;stroke:#2C2C2C;stroke-width:20;stroke-linecap:round;stroke-miterlimit:10;}
</style>
<g>
	<line class="st0" x1="-3.5" y1="422.4" x2="-3.5" y2="263.5"/>
	<line class="st0" x1="165.9" y1="422.4" x2="165.9" y2="263.5"/>
	<line class="st0" x1="-32" y1="286.1" x2="80.4" y2="173.7"/>
	<line class="st0" x1="82.7" y1="173.7" x2="195.1" y2="286.1"/>
	<line class="st0" x1="0.2" y1="422.5" x2="165.9" y2="422.5"/>
	<line class="st0" x1="0.2" y1="271.2" x2="162.5" y2="271.2"/>
</g>
</svg>
