<?xml version="1.0" encoding="utf-8"?>
<!-- Generator: Adobe Illustrator 19.1.0, SVG Export Plug-In . SVG Version: 6.00 Build 0)  -->
<svg version="1.1" id="Ebene_1" xmlns="http://www.w3.org/2000/svg" xmlns:xlink="http://www.w3.org/1999/xlink" x="0px" y="0px"
	 viewBox="-276 152.8 288.3 290.5" style="enable-background:new -276 152.8 288.3 290.5;" xml:space="preserve">
<style type="text/css">
	.st0{fill:none;stroke:#FFFFFF;stroke-width:20;stroke-linecap:round;stroke-miterlimit:10;}
</style>
<g>
	<circle class="st0" cx="-131.9" cy="247.9" r="54.3"/>
	<path class="st0" d="M-248.7,402.4c0,0,14-95.8,114.3-98.3s119.3,98.3,119.3,98.3"/>
</g>
</svg>
