<?xml version="1.0" encoding="utf-8"?>
<!-- Generator: Adobe Illustrator 19.1.0, SVG Export Plug-In . SVG Version: 6.00 Build 0)  -->
<svg version="1.1" id="Ebene_1" xmlns="http://www.w3.org/2000/svg" xmlns:xlink="http://www.w3.org/1999/xlink" x="0px" y="0px"
	 viewBox="-67.9 146.5 288.3 290.5" style="enable-background:new -67.9 146.5 288.3 290.5;" xml:space="preserve">
<style type="text/css">
	.st0{fill:#2C2C2C;}
	.st1{font-family:'Lato-Bold';}
	.st2{font-size:188.2762px;}
	.st3{fill:none;stroke:#2C2C2C;stroke-width:20;stroke-miterlimit:10;}
</style>
<g>
	<text transform="matrix(1 0 0 1 21.3222 359.0603)" class="st0 st1 st2">P</text>
	<path class="st3" d="M176.1,402.7H-23.5c-8,0-14.6-6.6-14.6-14.6V195.5c0-8,6.6-14.6,14.6-14.6h199.6c8,0,14.6,6.6,14.6,14.6v192.6
		C190.7,396.1,184.1,402.7,176.1,402.7z"/>
</g>
</svg>
